{"docs":[{"_id":"647e103a4cc63e0cd4317a0c","title":"tostadora","description":"electrodomestico ideal para tu cocina","price":20000,"thumbnail":["https://www.ultracomb.com.ar/Image/0/500_500-TO-4005-2021-500x500.png","imagen2"],"code":"A54FT","status":true,"category":"cocina","stock":3,"__v":0,"id":"647e103a4cc63e0cd4317a0c"},{"_id":"647e105a1f51e16a9a412abe","title":"heladera","description":"marca electrolux con freezer y regulador de temperatura","price":55500,"thumbnail":["imagen1","imagen2"],"code":"PFG45","status":true,"category":"cocina","stock":4,"__v":0,"id":"647e105a1f51e16a9a412abe"},{"_id":"647e1071c5c542ea05d7d1e2","title":"microondas","description":"electrodomestico","price":67200,"thumbnail":["imagen1","imagen2"],"code":"DFR56","status":true,"category":"cocina","stock":5,"__v":0,"id":"647e1071c5c542ea05d7d1e2"},{"_id":"647e107c1a560c7fe05f7906","title":"cocina","description":"4 quemadores con horno y luz","price":80000,"thumbnail":["imagen1","imagen2"],"code":"TYI68","status":true,"category":"cocina","stock":2,"__v":0,"id":"647e107c1a560c7fe05f7906"},{"_id":"647e1088b635190c5329cdb0","title":"batidora","description":"con 3 velocidades. incluye 2 recipientes y las 3 paletas","price":6500,"thumbnail":["imagen1","imagen2"],"code":"LDG89","status":true,"category":"cocina","stock":9,"__v":0,"id":"647e1088b635190c5329cdb0"},{"_id":"647e108f96bebd403308756f","title":"television","description":"smart tv 4k amoled con chromecast","price":45000,"thumbnail":["imagen1","imagen2"],"code":"QEX62","status":true,"category":"tecnologia","stock":4,"__v":0,"id":"647e108f96bebd403308756f"},{"_id":"647e109b8efc23dfe95df87e","title":"procesadora","description":"con 2 cuchillas extras y traba de seguridad","price":8700,"thumbnail":["imagen1","imagen2"],"code":"MVE41","status":true,"category":"cocina","stock":7,"__v":0,"id":"647e109b8efc23dfe95df87e"},{"_id":"647e10a3b90448781c4dac93","title":"lavavajillas","description":"gran capacidad con regulador de temperaturas","price":65000,"thumbnail":["imagen1","imagen2"],"code":"QKD30","status":true,"category":"electrodomestico","stock":4,"__v":0,"id":"647e10a3b90448781c4dac93"},{"_id":"647e10ace9ac4dcf05f04a38","title":"computadora","description":"4gb ram ssd 240gb marca hp","price":70500,"thumbnail":["imagen1","imagen2"],"code":"HST79","status":true,"category":"tecnologia","stock":3,"__v":0,"id":"647e10ace9ac4dcf05f04a38"},{"_id":"647e10b5f6aa451a79ca0b16","title":"masajeador","description":"con 3 modos distintos","price":8200,"thumbnail":["imagen1","imagen2"],"code":"ZUE19","status":true,"category":"belleza","stock":7,"__v":0,"id":"647e10b5f6aa451a79ca0b16"}],"totalDocs":12,"limit":10,"totalPages":2,"page":1,"pagingCounter":1,"hasPrevPage":false,"hasNextPage":true,"prevPage":null,"nextPage":2,"prevLink":null,"nextLink":"?limit=10&page=2"}